Project 1: Wrangling, Exploration, Visualization
…
There are 2 NAs for state, 12 for Average GPA, and 17 for Average MCAT.

Summarizing Numerical Variables

A variable to quantify the number of female applicants was generated using the mutate() function. First, the percentage of female applicants needed to be converted into a frequency. Then, the frequency was multipled by the total applicants. By using the arrange() function, we can see that approximately 7,707 females applied to Georgetown. By using filter(str_detect()), we can see that UT Southwestern had 3,054 female applicants- my top choice for medical school!

joined_data <- joined_data %>% mutate(freqfemale = percentfemale/100) %>% 
    mutate(femaleapplicants = freqfemale * Applications)
joined_data %>% arrange(desc(femaleapplicants))

## # A tibble: 164 x 17
##    MedicalSchool     Applications Instate Outofstate percentfemale percentmale
##    <chr>                    <dbl>   <dbl>      <dbl>         <dbl>       <dbl>
##  1 Georgetown               17882     0.4       99.6          43.1        56.8
##  2 Tulane                   17225     2.8       97.2          41.4        58.5
##  3 Drexel                   16682     7.7       92.3          42.5        57.4
##  4 George Washington        16825     0.5       99.5          41          58.9
##  5 Loyola-Stritch           16039    11.2       88.8          42.6        57.4
##  6 Colorado                 14106     6.1       93.9          46.8        53.1
##  7 New York Medical         15110    16.9       83.1          43.4        56.5
##  8 Tufts                    15440     7.9       92.1          42.2        57.7
##  9 Emory                    14745     7.6       92.4          43.9        56  
## 10 UCLA-Geffen              14325    45.8       54.2          44.3        55.7
## #  with 154 more rows, and 11 more variables: matriculants <dbl>,
## #   instatematriculants <dbl>, outofstatemarticulants <dbl>,
## #   femalematriculants <dbl>, malematriculants <dbl>, State <chr>,
## #   Average GPA <dbl>, Average MCAT <dbl>, Region <chr>, freqfemale <dbl>,
## #   femaleapplicants <dbl>
…
The table below contains the mean and standard deviation of the following numerical values: total applications, percent of applicants in state, and percent of applications out of state. The variables were initially grouped by state. Then, the pivot_longer(-1) was used to increase the number of rows, while decreasing the number of columns. The separate() function needed to be used to separate between the name of the variable and the stat function that was applied. Finally, pivot_wider() was used to generate the resulting table, with more columns and less rows. When arranging by descending order of total applications, we can see that Oregon received the most, with 16,682.

table1 <- joined_data %>% group_by(State) %>% filter(!is.na(State)) %>% 
    summarize_at(c("Applications", "Instate", "Outofstate", "percentfemale", 
        "percentmale"), .funs = list(mean = mean, sd = sd, median = median, 
        min = min, max = max)) %>% pivot_longer(-1) %>% separate(name, 
    into = c("name", "stat")) %>% pivot_wider()
table1 %>% arrange(desc(Applications))

## # A tibble: 230 x 7
##    State stat   Applications Instate Outofstate percentfemale percentmale
##    <chr> <chr>         <dbl>   <dbl>      <dbl>         <dbl>       <dbl>
##  1 CT    max           17882     4         99.6          49.3        58.9
##  2 LA    max           17225     8.3       97.2          48.4        58.5
##  3 CT    median        16825     0.5       99.5          43.1        56.8
##  4 OR    mean          16682     7.7       92.3          42.5        57.4
##  5 OR    median        16682     7.7       92.3          42.5        57.4
##  6 OR    min           16682     7.7       92.3          42.5        57.4
##  7 OR    max           16682     7.7       92.3          42.5        57.4
##  8 IL    max           16039    96.8       88.8          50.4        57.9
##  9 MA    max           15440    23.5       93.4          48.6        57.7
## 10 NY    max           15110    44.1       89.9          48.1        60.8
## #  with 220 more rows

table1 %>% arrange(desc(percentfemale))

## # A tibble: 230 x 7
##    State stat   Applications Instate Outofstate percentfemale percentmale
##    <chr> <chr>         <dbl>   <dbl>      <dbl>         <dbl>       <dbl>
##  1 MD    max           10624    21.6       93            53.8        55.3
##  2 UT    mean           3805    16.8       83.2          53.5        46.4
##  3 UT    median         3805    16.8       83.2          53.5        46.4
##  4 UT    min            3805    16.8       83.2          53.5        46.4
##  5 UT    max            3805    16.8       83.2          53.5        46.4
##  6 GA    max            8393    99.9       91.9          52.6        63.4
##  7 MI    max           11405    30         93.3          52.4        55  
##  8 NC    max           10863    15.8       97.2          51.1        53.9
##  9 IL    max           16039    96.8       88.8          50.4        57.9
## 10 MO    max            9070    99.8       95.2          50.1        55.7
## #  with 220 more rows
…
